<svg xmlns="http://www.w3.org/2000/svg" width="293.911" height="293.911" viewBox="0 0 293.911 293.911">
  <g id="Grupo_71" data-name="Grupo 71" opacity="0.5">
    <path id="Caminho_24" data-name="Caminho 24" d="M105.651,167.9H56.139a16.98,16.98,0,0,1-16.98-16.98V101.408h66.492Z" transform="translate(188.26 -101.408)" fill="#e1e1e1"/>
    <path id="Caminho_26" data-name="Caminho 26" d="M67.061,112.33h99.031a16.98,16.98,0,0,1,16.98,16.98v99.031a16.98,16.98,0,0,1-16.98,16.98H67.061a16.98,16.98,0,0,1-16.98-16.98V129.31a16.981,16.981,0,0,1,16.98-16.98" transform="translate(30.379 -31.87)" fill="#e1e1e1"/>
    <path id="Caminho_27" data-name="Caminho 27" d="M56.14,112.33h49.512V245.322H56.14a16.98,16.98,0,0,1-16.98-16.98V129.31a16.98,16.98,0,0,1,16.98-16.98" transform="translate(188.252 -31.87)" fill="#e1e1e1"/>
    <path id="Caminho_29" data-name="Caminho 29" d="M67.061,132.278h99.031a16.98,16.98,0,0,1,16.98,16.98v49.519H50.081V149.258a16.981,16.981,0,0,1,16.98-16.98" transform="translate(30.379 95.134)" fill="#e1e1e1"/>
    <path id="Caminho_30" data-name="Caminho 30" d="M56.14,132.278h49.512v66.5H39.16V149.258a16.98,16.98,0,0,1,16.98-16.98" transform="translate(188.252 95.134)" fill="#e1e1e1"/>
    <path id="Caminho_31" data-name="Caminho 31" d="M136.522,149.258v49.519H70.03v-66.5h49.512a16.981,16.981,0,0,1,16.98,16.98" transform="translate(-70.03 95.134)" fill="#e1e1e1"/>
  </g>
</svg>
