<svg xmlns="http://www.w3.org/2000/svg" xmlns:xlink="http://www.w3.org/1999/xlink" width="27" height="24" viewBox="0 0 27 24">
  <defs>
    <filter id="Retângulo_745" x="-15" y="-15" width="57" height="54" filterUnits="userSpaceOnUse">
      <feOffset input="SourceAlpha"/>
      <feGaussianBlur stdDeviation="5" result="blur"/>
      <feFlood flood-color="#4e528d" flood-opacity="0.251"/>
      <feComposite operator="in" in2="blur"/>
      <feComposite in="SourceGraphic"/>
    </filter>
    <clipPath id="clip-path">
      <g transform="matrix(1, 0, 0, 1, 0, 0)" filter="url(#Retângulo_745)">
        <rect id="Retângulo_745-2" data-name="Retângulo 745" width="27" height="24" rx="10" transform="translate(595.65 1358.93)" fill="#696972"/>
      </g>
    </clipPath>
  </defs>
  <g id="Grupo_de_máscara_2" data-name="Grupo de máscara 2" transform="translate(-595.647 -1358.927)" clip-path="url(#clip-path)">
    <g id="lock" transform="translate(600.214 1359)">
      <g id="Grupo_1515" data-name="Grupo 1515" transform="translate(0)">
        <path id="Caminho_1087" data-name="Caminho 1087" d="M93.322,8.973h-1.5V6.979a6.979,6.979,0,1,0-13.957,0V8.973h-1.5a.5.5,0,0,0-.5.5V21.933a2,2,0,0,0,1.994,1.994H91.826a2,2,0,0,0,1.994-1.994V9.471A.5.5,0,0,0,93.322,8.973ZM86.34,19.386a.5.5,0,0,1-.5.553H83.851a.5.5,0,0,1-.5-.553l.314-2.828a1.972,1.972,0,0,1-.816-1.6,1.994,1.994,0,1,1,3.988,0,1.972,1.972,0,0,1-.816,1.6Zm2.5-10.413H80.86V6.979a3.988,3.988,0,1,1,7.976,0Z" transform="translate(-75.875)" fill="#696972"/>
      </g>
    </g>
  </g>
</svg>
