<svg id="locked" xmlns="http://www.w3.org/2000/svg" width="17.945" height="23.927" viewBox="0 0 17.945 23.927">
  <g id="Grupo_1515" data-name="Grupo 1515" transform="translate(0)">
    <path id="Caminho_1087" data-name="Caminho 1087" d="M93.322,8.973h-1.5V6.979a6.979,6.979,0,1,0-13.957,0V8.973h-1.5a.5.5,0,0,0-.5.5V21.933a2,2,0,0,0,1.994,1.994H91.826a2,2,0,0,0,1.994-1.994V9.471A.5.5,0,0,0,93.322,8.973ZM86.34,19.386a.5.5,0,0,1-.5.553H83.851a.5.5,0,0,1-.5-.553l.314-2.828a1.972,1.972,0,0,1-.816-1.6,1.994,1.994,0,1,1,3.988,0,1.972,1.972,0,0,1-.816,1.6Zm2.5-10.413H80.86V6.979a3.988,3.988,0,1,1,7.976,0Z" transform="translate(-75.875)" fill="#696972"/>
  </g>
</svg>
